{
    "$schema": "https://gitlab.com/kicad/code/kicad/-/raw/master/kicad/pcm/schemas/pcm.v1.schema.json#/definitions/Repository",
    "maintainer": {
        "contact": {
            "web": "https://www.kicad.org/about/contact-us/"
        },
        "name": "KiCad team"
    },
    "name": "KiCad official repository",
    "packages": {
        "sha256": "095c6188ce277947cc96c0c179e8a3fa33c59a8f6e405509116c3f7890b40a43",
        "update_time_utc": "2024-12-12 11:01:34",
        "update_timestamp": 1734001294,
        "url": "https://gitlab.com/kicad/addons/repository/-/raw/main/packages.json"
    },
    "resources": {
        "sha256": "deb3c1d81113a4a236d86d8db58a4af497a2bff09e05b35f16dfc025885ea2a1",
        "update_time_utc": "2024-12-12 11:01:34",
        "update_timestamp": 1734001294,
        "url": "https://gitlab.com/kicad/addons/repository/-/jobs/artifacts/main/raw/artifacts/resources.zip?job=update"
    }
}
